[{
    "text": "Nawigacja główna",
    "heading": "true",
    "translate": "sidebar.heading.HEADER"
}, {
    "text": "Dashboard",
    "sref": "app.dashboard",
    "icon": "icon-grid"
}, {
    "text": "Sprzedaż",
    "heading": "true",
    "translate": "sidebar.heading.SALE"
}, {
    "text": "Transakcje",
    "sref": "app.transactions_list",
    "icon": "fa fa-credit-card"
}, {
    "text": "Płatności",
    "sref": "app.payments_list",
    "icon": "fa fa-money"
}, {
    "text": "Giełda BitBay",
    "sref": "app.bitbay",
    "icon": "fa fa-bank"
}, {
    "text": "Statystyki",
    "heading": "true",
    "translate": "sidebar.heading.STATISTICS"
}, {
    "text": "Statystyki odwiedzin",
    "sref": "app.analytics",
    "icon": "fa fa-line-chart"
}, {
    "text": "Administracja",
    "heading": "true",
    "translate": "sidebar.heading.ADMINISTRATION"
}, {
    "text": "Konfiguracja",
    "sref": "#",
    "icon": "fa fa-cogs",
    "submenu": [{
        "text": "Dostawcy",
        "sref": "app.providers_list"
    }, {
        "text": "Operatorzy",
        "sref": "app.operators"
    }, {
        "text": "Kraje",
        "sref": "app.countries"
    }, {
        "text": "Waluty",
        "sref": "app.currencies"
    }, {
        "text": "Giełda BitBay",
        "sref": "app.bitbay_configuration"
    }],
    "label": "label label-primary"
}, {
    "text": "Ustawienia aplikacji",
    "sref": "#",
    "icon": "icon-settings",
    "submenu": [{
        "text": "Użytkownicy",
        "sref": "app.settings_users"
    }, {
        "text": "Powiadomienia",
        "sref": "app.settings_notifications"
    }, {
        "text": "Prowizja",
        "sref": "app.settings_commission"
    }, {
        "text": "Kolejka wypłat",
        "sref": "app.settings_paymentqueue"
    }],
    "label": "label label-primary"
}]
